<?xml version="1.0" encoding="utf-8"?>
<!-- Generator: Adobe Illustrator 24.2.0, SVG Export Plug-In . SVG Version: 6.00 Build 0)  -->
<svg version="1.1" xmlns="http://www.w3.org/2000/svg" xmlns:xlink="http://www.w3.org/1999/xlink" x="0px" y="0px"
	 viewBox="0 0 12.1 12.4" style="enable-background:new 0 0 12.1 12.4;" xml:space="preserve">
<style type="text/css">
	.st5{opacity:0.54;fill:##223D5A;}
	.st6{fill:#EFEFEE;}
</style>

<g>
	<path class="st4" fill="#075B93" d="M5.5,9.4c0,0,3,0.9,4.8,1.5c-1.1,1-2.6,1.6-4.1,1.6C2.8,12.4,0,9.7,0,6.2C0,2.8,2.8,0,6.2,0
		c2.8,0,5.1,1.8,5.9,4.3l-4-1.1L7.7,3.1l0,0C7.5,2.8,7.2,2.6,7,2.5c0,0-1.1-0.2-1.1,0.7C5.8,4.1,6.7,4,6.8,4c0.1,0,0.1,0.3,0.1,0.3
		L6.6,4.4L5.5,9.4z"/>
	<path class="st4" fill="#075B93" d="M12.4,6.2c0,1.8-0.8,3.5-2.1,4.6c-1.9-0.6-4.8-1.5-4.8-1.5l1-5l0.3-0.1c0,0,0-0.3-0.1-0.3c-0.1,0-1,0-0.9-0.9
		C5.9,2.3,7,2.5,7,2.5C7.2,2.6,7.5,2.8,7.6,3l0,0l0.5,0.1l4,1.1C12.3,4.9,12.4,5.5,12.4,6.2z"/>
	<path class="st5" d="M12.4,6.2c0,1.8-0.8,3.5-2.1,4.6c-1.9-0.6-4.8-1.5-4.8-1.5l1-5l0.3-0.1c0,0,0-0.3-0.1-0.3c-0.1,0-1,0-0.9-0.9
		C5.9,2.3,7,2.5,7,2.5C7.2,2.6,7.5,2.8,7.6,3l0,0l0.5,0.1l4,1.1C12.3,4.9,12.4,5.5,12.4,6.2z"/>
	<g>
		<path class="st6" d="M7.1,4.4L6.5,8.2c0,0-0.1,0.5,0.1,0.5c0.2,0,0.5-0.5,0.6-1s0.2,1.9-1.2,1.8c-0.8,0-0.5-1-0.5-1.2
			c0-0.2,0.4-3.1,0.4-3.1s0.1-0.3-0.6-0.1C5.1,5.2,5,5,5.3,4.9C5.5,4.8,7.2,4.1,7.1,4.4z"/>
		<circle class="st6" cx="6.6" cy="3.1" r="0.8"/>
	</g>
</g>

</svg>
