{
  "pois": [
    {
      "id": "HOTEL",
      "name": "AC Hotel Bentonville by Marriott",
      "description": "With plans to open in Fall 2024, AC Hotel by Marriott Bentonville will be located in the Northwest neighborhood of campus, on the Razorback Greenway, with convenient access to office buildings, campus amenities, retail environment, a network of walking and biking paths and local attractions. With more than 90,000 square feet across five stories, plans for this new AC Hotel by Marriott calls for 153 sophisticated, modern guestrooms, as well as flexible meeting and event space on the main lobby floor as well as a rooftop lounge.",
      "d": "M3202.8 907.5L3249.2 926.2L3239.1 933.2L3248.2 937.4L3187.9 980.3L3226.3 993.4L3232 988.9L3360.7 1038.2L3346.1 1051L3327.6 1066.9L3289.2 1052.9L3291.5 1046.9L3278.5 1043L3184.5 1007.4L3162.7 999.8L3161.6 992.1L3111.1 974.2z",
      "x": "3213",
      "y": "1025",
      "images": [
        {
          "image": "Hotel-1.jpg",
          "alt": "Hotel Corner 8th/J"
        },
        {
          "image": "Hotel-2.jpg",
          "alt": "Hotel King Room"
        },
        {
          "image": "Hotel-3.jpg",
          "alt": "Hotel Lobby View"
        },
        {
          "image": "Hotel-4.jpg",
          "alt": "Hotel Hallway View"
        },
        {
          "image": "Hotel-5.jpg",
          "alt": "Hotel Event Space"
        },
        {
          "image": "Hotel-6.jpg",
          "alt": "Hotel Rooftop Lounge"
        },
        {
          "image": "Hotel-7.jpg",
          "alt": "Hotel Exterior Rooftop Patio"
        }
      ]
    },
    {
      "id": "AMPITHEATRE",
      "name": "Helen’s Amphitheatre",
      "description": "Helen’s Amphitheatre honors the extraordinary life and legacy of Helen Robson Walton, often referred to as “the first lady of Walmart.”  A philanthropist and champion for education and the arts, Helen was a driving force and strong proponent of Walmart associates and their families. Helen will long be remembered for her warm, welcoming spirit – and for the countless associate picnics she and Sam held on the front lawn of their home.</p><p>Helen’s Amphitheatre will be located in the heart of the new campus, right next to Sam Walton Hall. With terraced seating and a gently sloping lawn shaded by canopy trees, this beautiful gathering ground will be a welcome space for associates and visitors from around the world. Ms. Helen’s beloved dogwood trees and regional stone will be incorporated throughout the outdoor space and are examples of elements taken from the Walton family home she shared with Sam and their close-knit family.",
      "x": "3780",
      "y": "1730.6",
      "images": [
        {
          "image": "Amphitheatre-0.jpg",
          "alt": "Amphitheatre 0"
        },
        {
          "image": "Amphitheatre-1.jpg",
          "alt": "Amphitheatre 1"
        },
        {
          "image": "Amphitheatre-2.jpg",
          "alt": "Amphitheatre 2"
        },
        {
          "image": "Amphitheatre-3.jpg",
          "alt": "Amphitheatre 3"
        }
      ]
    },
    {
      "id": "FITNESS",
      "name": "Walton Family Whole Health and Fitness",
      "description": "This pioneering facility will focus not only on physical fitness, but on the whole health of the mind, body and spirit of every individual. At more than 360,000 square feet, Whole Health will have seamless integration with its natural surroundings and connection to community offering robust programming and resources. Every detail – from the yoga studios and pickleball courts to the nutrition kitchen and meditation garden – was thoughtfully designed with associates’ wellbeing in mind.<p class='responsive-iframe'><video width='800px' height='450px' controls><source src='/videos/walton_family_whole_health_and_fitness_go_ds_cc_v6.mp4'/></video>",
      "d": "M4223,1017.6l-76-26.9l-1.7,19.1l-44.2,5.2c0,0-13.3-32.1-12.2-73.1 c1.3-45.6,30.6-64.7,30.6-64.7l-34.6-9.7l-248.7-86.1l30.3-27.5l-44.9-15.2l57.9-43.1l99.8,29.6l28.2-20.8l44.8,14.9l8.1-6.2 l49.1,16.5l-1.3,7.8l113.8,38.2l-0.4,6.5l47.3,12.6l-5.2,6.5l14.8,6.5l9.6-1.7l27.4,11.7l59.1-49.1l95.6,33.4l48.2-39.1l110.3,34.8l-193.3,172.5l-112.5-37.4L4223,1017.6z",
      "x": "4162",
      "y": "857",
      "images": []
    },
    {
      "id": "NW_FP",
      "name": "Parking Deck",
      "description": "Dedicated parking deck for Walton Family Whole Health & Fitness.",
      "d": "M3788.5,536.2 4196.1,671.6 4145.3,721.3 3722,584.6",
      "x": "3878.2",
      "y": "635.4",
      "images": [
        {
          "image": "NW_fitness_parking.jpg",
          "alt": "Fitness Parking"
        }
      ]
    },
    {
      "id": "WELCOME",
      "name": "Welcome Center",
      "description": "Whether it is guests new to our campus or expected visitors coming to the home office for the first time, we want them to all be greeted in the friendly, welcoming, inclusive environment we enjoy every day.",
      "d": "M3502.1 1164.6L3555.7 1186L3599.4 1150.6L3544.5 1131.4z",
      "x": "3580",
      "y": "1169",
      "images": [
        {
          "image": "NW_welcome-center-1.jpg",
          "alt": "Welcome Center"
        }
      ]
    },
    {
      "id": "CHILDREN",
      "name": "On-Campus Childcare",
      "featured": "true",
      "description": "Little Squiggles Children’s Enrichment Center, a top-requested amenity from associates, demonstrates our commitment to building a culture and environment that allows associates’ families to grow and thrive. Offering a discovery-driven approach to learning with a researched-based curriculum, the 73,000 square-foot amenity will support over 500 children – ranging from six-weeks to Pre-K – of campus-based associates in Northwest Arkansas.</p><p>Little Squiggles opens May 6.",
      "d": "M4351.1 594.1L4469.8 631.8L4485.5 621.3L4518.7 629.8L4505 642.8L4622.3 681.3L4659.5 649.3L4467.9 588.1L4466.6 577L4529.1 524.2L4479.7 506.9L4553 443.1L4604.5 461.8L4661.1 415.9L4634.6 408.8L4662.6 384.8L4696.8 395.9L4680.6 408L4874 461.7L4902.2 437.4L4783.2 401.2L4768.9 412.3L4740.2 404.5L4753.3 391.1L4628.7 350.7z",
      "x": "4578",
      "y": "650",
      "images": [
        {
          "image": "Child1.jpg",
          "alt": "Childcare Center Exterior"
        },
        {
          "image": "Child2.jpg",
          "alt": "Childcare Center Interior"
        },
        {
          "image": "Child3.jpg",
          "alt": "Childcare Center Interior"
        },
        {
          "image": "Child4.jpg",
          "alt": "Childcare Center Interior"
        },
        {
          "image": "Child5.jpg",
          "alt": "Childcare Center Interior"
        },
        {
          "image": "Child6.jpg",
          "alt": "Childcare Center Interior"
        },
        {
          "image": "Child7.jpg",
          "alt": "Childcare Center Interior"
        },
        {
          "image": "Child8.jpg",
          "alt": "Childcare Center Exterior"
        },
        {
          "image": "Child9.jpg",
          "alt": "Childcare Center Exterior"
        }
      ]
    },
    {
      "id": "8thRetail",
      "name": "8th Street",
      "description": "8th Street will serve as the primary corridor through campus. Here, associates and visitors will enjoy the active street-front retail environment with amenities that truly extend the campus experience. Newly expanded street lanes, paths, sidewalks and pedestrian crossings provide safe and convenient access for drivers, cyclists, and pedestrians. 8th Street also connects the four neighborhoods of our campus, including access to the Razorback Greenway – creating a seamless integration into our surrounding community.</p><p class='responsive-iframe'><video width='800px' height='450px' poster='/videos/8th-animation-poster.jpg' controls><source src='/videos/8th-animation.mp4'/></video>",
      "x": "2960",
      "y": "990",
      "images": []
    },
    {
      "id": "NE_02",
      "name": "Office Space",
      "description": "This building will include merchant office space and vendor meeting rooms along with a tech bar, coffee collab, coffee kiosk, and a multi-purpose meeting room.",
      "d": "M5005.1 1157l-132.3 139.5 88.6 33.2 30-32.6 52.8 20.2-13.1 12.4 90.6 34.5 125.8-139.4-204.6-67.8-9.1 9.2z",
      "x": "5069",
      "y": "1248",
      "images": [
        {
          "image": "NE_02-1.jpg",
          "alt": "Office Space"
        }
      ]
    },
    {
      "id": "NE_01",
      "name": "Office Space",
      "description": "This building will include a multi-purpose meeting room and an innovation studio.",
      "d": "M5378 1309.9l-38.2 47.4-18.3-6.5-30.8 36 292.3 102.1 42.2-49.9 14.7 5.6 27.8-36.1z",
      "x": "5473",
      "y": "1415",
      "images": [
        {
          "image": "NE_01-1.jpg",
          "alt": "Office Space"
        }
      ]
    },
    {
      "id": "NE_04",
      "name": "Apparel Merchant Office Space",
      "description": "The new office space for apparel merchants will be 30,000 square feet larger than their current space. With an office/layout integrated space design, this building is designed to allow collaboration and innovation among the apparel merchants. The building includes office space, floor space for merchandise layouts and a coffee kiosk.",
      "d": "M4568.5 1061.9l307.6 108.2-119.3 121.2-141.1-52.6-5.3 4.6-33.6-12.9 4.1-5.4-133.6-48.4z",
      "x": "4667",
      "y": "1204",
      "images": [
        {
          "image": "NE_04-1.jpg",
          "alt": "Apparel Merchant Office Space"
        }
      ]
    },
    {
      "id": "NE_PD01",
      "name": "Parking Deck",
      "description": "Nearby offices will be less than a five-minute walk from the parking deck.",
      "d": "M5388.9 1279.5l145.9-169.4 303.7 103-140.8 174.6z",
      "x": "5619",
      "y": "1235",
      "images": [
        {
          "image": "NE_PD02-1.jpg",
          "alt": "Parking"
        },
        {
          "image": "NE_PD02-2.jpg",
          "alt": "Parking"
        },
        {
          "image": "NE_PD02-3.jpg",
          "alt": "Parking"
        }
      ]
    },
    {
      "id": "NE_PD02",
      "name": "Parking Deck",
      "description": "In addition to convenient parking — all offices will be less than a five-minute walk from the nearest deck — this structure offers showers and lockers for associates, as well as local public retail shops with access to the sidewalk and 8th Street.",
      "d": "M4685.2 1438.5l334.9 123.8-122.5 144.7-348-131.6z",
      "x": "4710",
      "y": "1545",
      "images": [
        {
          "image": "NE_PD02-1.jpg",
          "alt": "Parking"
        },
        {
          "image": "NE_PD02-2.jpg",
          "alt": "Parking"
        },
        {
          "image": "NE_PD02-3.jpg",
          "alt": "Parking"
        },
        {
          "image": "NE_PD02-4.jpg",
          "alt": "Parking"
        },
        {
          "image": "NE_PD02-5.jpg",
          "alt": "Parking"
        },
        {
          "image": "PD02_Garage-Site-Entry.jpg",
          "alt": "Garage Entry"
        },
        {
          "image": "PD02_Main-Park.jpg",
          "alt": "Main Park"
        },
        {
          "image": "PD02_Main-Park-02.jpg",
          "alt": "Main Park"
        },
        {
          "image": "PD02_North-Sidewalk.jpg",
          "alt": "North Sidewalk"
        },
        {
          "image": "PD02_Park-Across-Street.jpg",
          "alt": "Park Across Street"
        },
        {
          "image": "PD02_Small-Park.jpg",
          "alt": "Small Park"
        }
      ]
    },
    {
      "id": "NE_PD03",
      "name": "Parking Deck",
      "description": "Nearby offices will be less than a five-minute walk from the parking deck.",
      "d": "M4913.2 1112.7l-276.3-96.4 165.5-156.4 272.4 95.1z",
      "x": "4837",
      "y": "1021",
      "images": [
        {
          "image": "NE_PD03-1.jpg",
          "alt": "Parking"
        },
        {
          "image": "NE_PD03-2.jpg",
          "alt": "Parking"
        },
        {
          "image": "NE_PD03-3.jpg",
          "alt": "Parking"
        }
      ]
    },
    {
      "id": "NE_12",
      "name": "Office Space",
      "description": "This building will include a large neighborhood meeting center.",
      "d": "M5310 1469.8l-148.5 172 67.1 28.7 9.8-11.7 26 9.1-4.5 7.8 68.4 22.8 135.5-167.5-95.5-31.2 5.9-5.9z",
      "x": "5324",
      "y": "1621",
      "images": [
        {
          "image": "NE_12-1.jpg",
          "alt": "Office Space"
        }
      ]
    },
    {
      "id": "NE_03",
      "name": "Office Space",
      "description": "This building will include a tiered meeting room and a tech bar.",
      "d": "M4332 1291.3l257.4 94.4-49.5 51.5-58.7-20.2-27.4 29.3 27.4 10.5-55.4 55.3-260-102.9 56.1-50.8 54.1 20.2 32.5-28.7-29.3-9.8z",
      "x": "4373",
      "y": "1415",
      "images": [
        {
          "image": "NE_03-1.jpg",
          "alt": "Office Space"
        }
      ]
    },
    {
      "id": "LAYOUT",
      "name": "Layout Center",
      "description": "The Layout Center gives associates the opportunity to test out ideas, set seasonal and category layouts, determine space allocation and evaluate packaging in real life — before products land on store shelves. With more space than its predecessor (100,000 square feet more, to be exact), the building is organized to flow like a Supercenter with similar adjacencies and even an Action Alley for feature sets. Tech-enabled conference and meeting rooms of all sizes support omni merchant needs.",
      "d": "M5984.4 1318.6L5575.2 1866l454.8 177.2 282.8-435.3 123.8 44.3 96.4-151.1z",
      "x": "6033",
      "y": "1481",
      "images": [
        {
          "image": "Layout-Progress-01.jpg",
          "alt": "Layout Center"
        },
        {
          "image": "Layout-GrandOpening-01.jpg",
          "alt": "Layout Center Grand Opening"
        },
        {
          "image": "Layout-Exterior.jpg",
          "alt": "Layout Center Grand Opening"
        },
        {
          "image": "Layout-Interior-01.jpg",
          "alt": "Layout Center Grand Opening"
        },
        {
          "image": "Layout-Interior-02.jpg",
          "alt": "Layout Center Grand Opening"
        }
      ]
    },
    {
      "id": "FOOD",
      "name": "Associate Food Hall",
      "description": "Centrally located in the heart of campus, on the corner of 8th and P St., the new Food Hall will be convenient for associates coming from any neighborhood on campus. It will offer a flexible space for associates to connect and unwind, while enjoying a wide variety of creative, fresh, healthy food options- including custom salads, nutritious offerings, comfort foods and regional culinary fare from across the globe.",
      "d": "M4104.6 1533l-55.4 52.1 117.3 48.2-41.7 41.7 50.8 19.6-45.6 48.2-36.5 35.8 88.6 37.2 127.7-127.7-18.2-7.8 24.8-28.1-42.4-17.6v-35.1z",
      "x": "4214",
      "y": "1702",
      "images": [
        {
          "image": "SE_food-hall-aerial-view-1.jpg",
          "alt": "Food Hall"
        },
        {
          "image": "SE_food-hall-aerial-view-2.jpg",
          "alt": "Food Hall"
        },
        {
          "image": "SE_food-hall-arkanzza-front-view.jpg",
          "alt": "Food Hall"
        },
        {
          "image": "SE_food-hall-bocadito-front-view.jpg",
          "alt": "Food Hall"
        },
        {
          "image": "SE_food-hall-burgers-inc-front-view.jpg",
          "alt": "Food Hall"
        },
        {
          "image": "SE_food-hall-chickfila-front-view.jpg",
          "alt": "Food Hall"
        },
        {
          "image": "SE_food-hall-elia-pickup-view.jpg",
          "alt": "Food Hall"
        },
        {
          "image": "SE_food-hall-patio-view.jpg",
          "alt": "Food Hall"
        }
      ]
    },
    {
      "id": "SE_PD05",
      "name": "Parking Deck",
      "description": "Nearby offices will be less than a five-minute walk from the parking deck.",
      "d": "M4239.8 2559.2l269.8-305.9 7.8 4.9 3.9-7.8 34.2 12.7-6.8 6.8v8.8l-11.8 8.8v7.8l294.2 130-237.5 297.2z",
      "x": "4548",
      "y": "2486",
      "images": [
        {
          "image": "SW_PD07-1.jpg",
          "alt": "Parking"
        },
        {
          "image": "SW_PD07-2.jpg",
          "alt": "Parking"
        },
        {
          "image": "SW_PD07-3.jpg",
          "alt": "Parking"
        }
      ]
    },
    {
      "id": "SE_PD06",
      "name": "Parking Deck",
      "description": "In addition to convenient parking — all offices will be less than a five-minute walk from the nearest deck — this structure offers showers and lockers for associates.",
      "d": "M4018.8 2140.9l5.2-4.3 30.9 15.2-8.7 7.4.4 4.7-5.2 4.4v8.7l292.2 130.1-169.1 186.7-343-154.5z",
      "x": "4081",
      "y": "2322",
      "images": [
        {
          "image": "SW_PD07-1.jpg",
          "alt": "Parking"
        },
        {
          "image": "SW_PD07-2.jpg",
          "alt": "Parking"
        },
        {
          "image": "SW_PD07-3.jpg",
          "alt": "Parking"
        }
      ]
    },
    {
      "id": "SE_07",
      "name": "Office Space",
      "description": "This building will include a multi-purpose meeting room and a coffee collab - a functional collaboration space for eating, meeting and working.",
      "d": "M4161.3 1999.5l321.2 136.9-43.6 48.8-15.7-7.8-52.8 60.6-301.6-128.4 44.3-45.6 6.5 2 15-14.3-17-7.2z",
      "x": "4271",
      "y": "2116",
      "images": [
        {
          "image": "OF07-1.jpg",
          "alt": "SE Office Space"
        }
      ]
    },
    {
      "id": "SE_PD04",
      "name": "Parking Deck",
      "description": "Nearby offices will be less than a five-minute walk from the parking deck, which will also feature public retails shops with access to the sidewalk, bike path and 8th Street.",
      "d": "M4365.9 1798.2l144.6-147.3 310.2 119.9-138.1 155.1z",
      "x": "4589",
      "y": "1793",
      "images": [
        {
          "image": "NE_PD02-1.jpg",
          "alt": "Parking"
        },
        {
          "image": "NE_PD02-2.jpg",
          "alt": "Parking"
        },
        {
          "image": "NE_PD02-3.jpg",
          "alt": "Parking"
        },
        {
          "image": "NE_PD02-4.jpg",
          "alt": "Parking"
        },
        {
          "image": "NE_PD02-5.jpg",
          "alt": "Parking"
        },
        {
          "image": "PD02_Garage-Site-Entry.jpg",
          "alt": "Garage Entry"
        },
        {
          "image": "PD02_Main-Park.jpg",
          "alt": "Main Park"
        },
        {
          "image": "PD02_Main-Park-02.jpg",
          "alt": "Main Park"
        },
        {
          "image": "PD02_North-Sidewalk.jpg",
          "alt": "North Sidewalk"
        },
        {
          "image": "PD02_Park-Across-Street.jpg",
          "alt": "Park Across Street"
        },
        {
          "image": "PD02_Small-Park.jpg",
          "alt": "Small Park"
        }
      ]
    },
    {
      "id": "SE_05",
      "name": "Office Space",
      "description": "This building will include a neighborhood meeting center.",
      "d": "M4346.3 1827.5l282.2 114-48.9 58 14.3 7.2-37.8 46.3-318.6-134.9 41.7-41.7 13.7 4.5z",
      "x": "4426",
      "y": "1931",
      "images": [
        {
          "image": "SE_05-1.jpg",
          "alt": "SE Office Space"
        }
      ]
    },
    {
      "id": "SE_08",
      "name": "Office Space",
      "description": "The largest of all the offices, this building will include a large neighborhood meeting center, tiered meeting room, coffee collab and a tech bar.",
      "d": "M3754 1880.9c-2.9 1-245.3 172-245.3 172l80.1 54.7 54.7-41 85 41-45.9 42 95.8 48.9 196.5-195.5-100.7-43-21.5 21.5-49.8-23.1 25.4-18.9-26.4-15.6 9.8-9.8-57.7-33.2z",
      "x": "3768",
      "y": "2074",
      "images": [
        {
          "image": "OF08-1.jpg",
          "alt": "SW Office Space"
        }
      ]
    },
    {
      "id": "SE_06",
      "name": "Office Space",
      "description": "This building will include an innovation studio, tech bar and a multi-purpose meeting room.",
      "d": "M4849.9 2040.9l-184 216.3 173 72.4 166.2-209.2-97.8-40.1 9.8-12.7z",
      "x": "4858",
      "y": "2171",
      "images": [
        {
          "image": "SE_06-2.jpg",
          "alt": "SE Office Space"
        }
      ]
    },
    {
      "id": "DGTB",
      "name": "David Glass Technology Center",
      "description": "The existing David Glass Technology Center will be part of the new campus.",
      "d": "M7580.9,2927l32.5,18.6l-11.9,27.1l147,95.9l-68.7,143.4l84.3,58.9l-22,47.4l159.2,105l98.7,64.7l3.8,603.4l-185.5-4.1l-274.4-210.1l42.4-98.3l-50.8-37.3l56.2-129.1l-37.6-26.8l-11.9,22l-23.7-16.9l40.7-89.8l-28.8-22.7l55.9-114.5l-274.4-188l174.9-262.2l74.5,44.4L7580.9,2927z",
      "x": "7485",
      "y": "3200",
      "images": [
        {
          "image": "DGTC.jpg",
          "alt": "David Glass Technology Building"
        },
        {
          "image": "DGTC-lobby2.jpg",
          "alt": "David Glass Technology Building"
        }
      ]
    },
    {
      "id": "SW_09",
      "name": "Office Space",
      "description": "This building will include a large neighborhood meeting center.",
      "d": "M3283 1704.4l-162.9 183.7 91.2 28.7-9.8 15.6 65.8 22.2 185.1-212.4-70.4-22.2-11.7 10.4-22.2-10.4z",
      "x": "3290",
      "y": "1810",
      "images": [
        {
          "image": "OF09-1.jpg",
          "alt": "SW Office Space"
        }
      ]
    },
    {
      "id": "SW_PD07",
      "name": "Parking Deck",
      "description": "Nearby offices will be less than a five-minute walk from the parking deck.",
      "d": "M2887.1 1882.9l186.7-152.5v-11.7l7.8-6.8-10.4-6.2v-7.9l-24.1-11-7.8 5.2v20.2l-244.4-107.5-188.9 149.2z",
      "x": "2840",
      "y": "1750",
      "images": [
        {
          "image": "SW_PD07-1.jpg",
          "alt": "Parking"
        },
        {
          "image": "SW_PD07-2.jpg",
          "alt": "Parking"
        },
        {
          "image": "SW_PD07-3.jpg",
          "alt": "Parking"
        }
      ]
    },
    {
      "id": "AUDITORIUM",
      "name": "Sam Walton Hall",
      "description": "Located in the heart of campus, Sam Walton Hall will be the central point on campus for meetings and events where Home Office and field associates can learn and celebrate together. Whether you are taking a class for personal career development or attending a Town Hall, this amenity building will encourage connection across more than 200,000 square feet of enhanced auditorium, conference and learning and development spaces.",
      "d": "M3677.2 1298.4L3395 1546.7l59.3 22.1v12.4l175.9 72.3 10.5-10.4-2.6-56.7 112.7-99 9.8 5.2 110.1-106.2-144-58.6 5.2-5.9z",
      "x": "3661",
      "y": "1466",
      "images": [
        {
          "image": "Sam-Walton-Hall.jpg",
          "alt": "Sam Walton Hall"
        }
      ]
    },
    {
      "id": "SW_10",
      "name": "Office Space",
      "description": "This building will include a multi-purpose meeting room, innovation studio and tech bar.",
      "d": "M3052.3 1386.4l-194.2 152.5 84.7 37.8 24.8-20.9 50.8 20.9-46.9 39 80.8 33.9 192.9-159-82.1-35.1-19.6 15.6-48.2-20.9 37.8-29.9z",
      "x": "3053",
      "y": "1515",
      "images": [
        {
          "image": "OF10-1.jpg",
          "alt": "SW Office Space"
        }
      ]
    },
    {
      "id": "SW_11",
      "name": "Office Space",
      "description": "Located at the corner of J Street and 8th Street and adjacent to the bike tunnel entrance bordering 8th Street, this building will include a tiered meeting room.",
      "d": "M2966.9 1046.9l-171.3 124.5 126.4 55.4 110.1-84.1 95.1 38.4 19.6-16.2 13 7.1 43-31.9z",
      "x": "2965",
      "y": "1143",
      "images": [
        {
          "image": "SW_11-1.jpg",
          "alt": "SW Office Space"
        }
      ]
    },
    {
      "id": "SW_PD08",
      "name": "Parking Deck",
      "description": "In addition to convenient parking — all offices will be less than a five-minute walk from the nearest deck — this structure offers public retail shops with access to the sidewalk, bike path and J Street.",
      "d": "M2758.1 1292.6l203.3 87-272.7 208.1-212.1-92.8z",
      "x": "2742",
      "y": "1447",
      "images": [
        {
          "image": "SW_PD07-1.jpg",
          "alt": "Parking"
        },
        {
          "image": "SW_PD07-2.jpg",
          "alt": "Parking"
        },
        {
          "image": "SW_PD07-3.jpg",
          "alt": "Parking"
        }
      ]
    },
    {
      "id": "SW_PD09",
      "name": "Parking Deck",
      "description": "Nearby offices will be less than a five-minute walk from the parking deck.",
      "d": "M3393.4 1421.6l-217-89 163.2-125.1 263 101.7-161.3 132.9v-10.7l-36.2-16.7z",
      "x": "3384",
      "y": "1320",
      "images": [
        {
          "image": "SW_PD07-1.jpg",
          "alt": "Parking"
        },
        {
          "image": "SW_PD07-2.jpg",
          "alt": "Parking"
        },
        {
          "image": "SW_PD07-3.jpg",
          "alt": "Parking"
        }
      ]
    },
    {
      "id": "BIKE",
      "name": "Rob's Trail",
      "description": "Rob Walton has been an integral part of Walmart’s journey. He served as chairman of the board of directors from 1992-2015, and also held a variety of leadership positions within the company including corporate secretary and general counsel. An outdoor enthusiast, avid cyclist and sustainability champion, he has been responsible for driving change and creative solutions for Walmart and Northwest Arkansas. This trail recognizes his service.</p><p>Rob’s Trail will consist of more than three miles of soft-surface trail around the campus, connecting associates and visitors with activity and beautiful scenery and creating an atmosphere that highlights the best of Northwest Arkansas nature.</p><p class='responsive-iframe'><video width='800px' height='450px' controls><source src='/videos/WMT_Robs_Trail.mp4'/></video>",
      "x": "3678.2",
      "y": "649.4",
      "d": "M3634.5,632a20,10 0 1,0 40,0a20,10 0 1,0 -40,0",
      "images": []
    }
  ],
  "infoMarkers": [
    {
      "id": "A",
      "description": "Each Quad will offer shady spaces to sit outdoors and get some fresh air.",
      "x": "4622",
      "y": "1322"
    },
    {
      "id": "B",
      "description": "This particular parking lot was designed to preserve a large sycamore tree.",
      "x": "5263.5",
      "y": "1118.8"
    },
    {
      "id": "C",
      "description": "A pedestrian and bike promenade will connect the east and west sides of campus. From the Layout Center to the fitness center is about a 2.5 minute bike ride. ",
      "x": "5234.2",
      "y": "1496"
    },
    {
      "id": "D",
      "description": "Each Quad will include a plaza where food trucks can park and provide rotating food options. A nearby pavilion will offer a shady spot to enjoy lunch.",
      "x": "4989.9",
      "y": "1517.5"
    },
    {
      "id": "E",
      "description": "A bike trail will provide an off-street route from the campus to the David Glass Technology Center, the community college and beyond.",
      "x": "5578.3",
      "y": "2375.7"
    },
    {
      "id": "F",
      "description": "Each Quad will include a plaza where food trucks can park and provide rotating food options. A nearby pavilion will offer a shady spot to enjoy lunch.",
      "x": "4755.3",
      "y": "2072.7"
    },
    {
      "id": "G",
      "description": "Each Quad will offer shady spaces to sit outdoors and get some fresh air.",
      "x": "4598.9",
      "y": "2172.4"
    },
    {
      "id": "H",
      "description": "A pedestrian and bike promenade will connect the east and west sides of campus. Riding a bike from the corner of 8th and J to the eastern-most office building will take about 3 minutes.",
      "x": "4012.5",
      "y": "1951.5"
    },
    {
      "id": "I",
      "description": "Stormwater from the neighborhoods to the east will empty into a large bioswale, where plants clean the water before it arrives in the south lake.",
      "x": "4069.2",
      "y": "3120.4"
    },
    {
      "id": "J",
      "description": "The Gateway Trail has the potential to join with future bike crossings of 14th Street and connect with the Razorback Greenway to the south.",
      "x": "1874",
      "y": "3118.5"
    },
    {
      "id": "K",
      "description": "The landscapes at the south lake will include trees that were preserved from the existing site and replanted, as well as existing trees that will remain undisturbed.",
      "x": "1248.5",
      "y": "2768.6"
    },
    {
      "id": "L",
      "description": "The south lake collects stormwater and is connected to the campus irrigation system. The lakes allow the landscapes to be irrigated with minimal use of the city’s potable water supply.",
      "x": "1569.1",
      "y": "2426.5"
    },
    {
      "id": "M",
      "description": "Approximately 1 mile of trails around the south lake and landscapes will provide an opportunity to exercise and connect with nature.",
      "x": "1952.2",
      "y": "2313.1"
    },
    {
      "id": "N",
      "description": "Each Quad will include a plaza where food trucks can park and provide rotating food options. A nearby pavilion will offer a shady spot to enjoy lunch.",
      "x": "3398.7",
      "y": "1693.5"
    },
    {
      "id": "O",
      "description": "The Southwest Quad open space was designed to preserve large catalpa and oak trees. Each Quad will offer shady spaces to sit outdoors and get some fresh air.",
      "x": "3050.8",
      "y": "1308.4"
    },
    {
      "id": "R",
      "description": "Forested landscape with native trees and plants shade the greenway trail.",
      "x": "3942.1",
      "y": "1220.4"
    },
    {
      "id": "S",
      "description": "New trail tunnels provide a seamless connection with the Town Branch Trail, connecting downtown Bentonville to the campus.",
      "x": "3498.4",
      "y": "782.6"
    },
    {
      "id": "T",
      "description": "The north lake collects stormwater and is connected to the campus irrigation system. The lakes allow the landscapes to be irrigated with minimal use of the city’s potable water supply.",
      "x": "3691.9",
      "y": "762.8"
    },
    {
      "id": "W",
      "description": "Two central utility plants – one on the north side of campus and one on the south – will incorporate cooling towers and heat recovery chillers to provide the most energy efficient HVAC strategies.",
      "x": "5067.6",
      "y": "722.6"
    },
    {
      "id": "X",
      "description": "Two central utility plants – one on the north side of campus and one on the south – will incorporate cooling towers and heat recovery chillers to provide the most energy efficient HVAC strategies.",
      "x": "3052.6",
      "y": "2575.6"
    }
  ],
  "external": [
    {
      "id": "downtownBentonville",
      "image": "external-downtownBentonville.png",
      "name": "Downtown Bentonville",
      "description": "The heart of Bentonville offers exceptional dining, as well as shopping and attractions. Enjoy walking around the Bentonville Square or visiting the Walmart Museum and Spark Café.",
      "x": "3718",
      "y": "390"
    },
    {
      "id": "crystalBridges",
      "image": "external-crystalBridges.png",
      "name": "Crystal Bridges",
      "description": "Art, architecture and nature come together in this extraordinary museum of American art. Free to the public, this world-class museum celebrates the American spirit and is only 1 mile north of campus on J Street.",
      "x": "4100",
      "y": "415"
    },
    {
      "id": "market",
      "image": "external-market.png",
      "name": "8th Street Market",
      "description": "A quick, two-minute bike ride from campus, this food hub is a great place to enjoy food and drink along with a fun, community-focused atmosphere.",
      "x": "2626",
      "y": "600"
    },
    {
      "id": "theMomentary",
      "image": "external-theMomentary.png",
      "name": "The Momentary",
      "description": "Less than five minutes from campus by bike, this contemporary art space brings together visual, performing and culinary arts into a welcoming, communal space.",
      "x": "2465",
      "y": "250"
    }
  ],
  "streets": [
    {
      "id": "5th1",
      "name": "5th Street",
      "axis": "18"
    },
    {
      "id": "5th2",
      "name": "5th Street",
      "axis": "19"
    },
    {
      "id": "8th1",
      "name": "8th Street",
      "axis": "21"
    },
    {
      "id": "10th1",
      "name": "10th Street",
      "axis": "27"
    },
    {
      "id": "10th2",
      "name": "10th Street",
      "axis": "27"
    },
    {
      "id": "14th",
      "name": "14th Street",
      "axis": "33"
    },
    {
      "id": "P",
      "name": "P Street",
      "axis": "-44"
    },
    {
      "id": "J",
      "name": "J Street",
      "axis": "-38"
    },
    {
      "id": "Moberly",
      "name": "Moberly Lane",
      "axis": "-65"
    },
    {
      "id": "MLK1",
      "name": "Martin Luther King, Jr., Parkway",
      "axis": "-51"
    },
    {
      "id": "Central",
      "name": "Central Avenue",
      "axis": "15"
    }
  ],
  "quadrants": [
    {
      "id": 1,
      "name": "Northwest Quad",
      "description": "Nulla vitae elit libero, a pharetra augue."
    },
    {
      "id": 2,
      "name": "Northeast Quad",
      "description": "Lorem Ipsum Nulla vitae elit libero, a pharetra augue."
    },
    {
      "id": 3,
      "name": "Southwest Quad",
      "description": "Nulla vitae elit libero, a pharetra augue."
    },
    {
      "id": 4,
      "name": "Southeast Quad",
      "description": "libero, a pharetra augue."
    }
  ]
}
